Danish Monarchs
…
Is your data messy? Fix it before re-importing to R

Do your start and end of reign columns contain NAs? Choose the right
strategy to deal with them: na.omit(),
na.rm=TRUE, !is.na()

Create a new column called duration in the kings
dataset, utilizing the mutate() function from tidyverse.
Check with your group to brainstorm the options.

kings %>%
  filter(!is.na(End_year_reign&Start_year_reign)) %>%
  mutate(Duration_of_reign = End_year_reign - Start_year_reign )

## # A tibble: 51 × 8
##    Name      Regnal_number Nickname Year_of_birth Year_of_death Start_year_reign
##    <chr>     <chr>         <chr>            <dbl>         <dbl>            <dbl>
##  1 Harald    <NA>          Blåtand             NA           987              958
##  2 Svend     Na            Tveskæg             NA          1014              987
##  3 Harald    2             <NA>                NA          1018             1014
##  4 Knud      1             Den_sto…           995          1035             1018
##  5 Hardeknud <NA>          <NA>              1020          1042             1025
##  6 Magnus    <NA>          Den_gode          1024          1047             1042
##  7 Svend     2             Estriden            NA          1076             1047
##  8 Harald    3             Hen                 NA          1080             1074
##  9 Knud      2             Den_hel…            NA          1086             1080
## 10 Oluf      1             Hunger              NA          1096             1086
## # ℹ 41 more rows
## # ℹ 2 more variables: End_year_reign <dbl>, Duration_of_reign <dbl>
…
## [1] 20.60784

How many and which kings enjoyed a longer-than-average duration of
reign?

You have calculated the average duration above. Use it now to
filter() the duration column in
kings dataset. Display the result and also count the
resulting rows with count()

kings %>%
  select(Name, duration) %>%
  filter(duration > 20.6) 

## # A tibble: 24 × 2
##    Name     duration
##    <chr>       <dbl>
##  1 Harald         29
##  2 Svend          27
##  3 Svend          27
##  4 Niels          30
##  5 Valdemar       25
##  6 Valdemar       39
##  7 Erik           27
##  8 Erik           33
##  9 Valdemar       35
## 10 Erik           43
## # ℹ 14 more rows
…
